

{
	"sProcessing":   "انتظر...",
	"sLengthMenu":   "إظهار إدخالات _MENU_",
	"sZeroRecords":  "لا توجد إدخالات.",
	"sInfo":         "الرسائل من _START_ إلى _END_ من _TOTAL_ من المشاركات",
	"sInfoEmpty":    "السجلات من 0 إلى 0 من 0 السجلات",
	"sInfoFiltered": "(تمت تصفيته من سجلات _MAX_)",
	"sInfoPostFix":  "",
	"sSearch":       "بحث:",
	"sUrl":          "",
	"oPaginate": {
		"sFirst": "أول",
		"sPrevious": "السابق",
		"sNext": "التالى",
		"sLast": "الاخير"
	},
	"oAria": {
		"sSortAscending":  ": تفعيل لفرز العمود تصاعديا",
		"sSortDescending": ": تنشيط لفرز الأعمدة التنازلي"
	}
}
