<?xml version="1.0" encoding="utf-8"?>
<!-- Generator: Adobe Illustrator 24.0.2, SVG Export Plug-In . SVG Version: 6.00 Build 0)  -->
<svg version="1.1" id="Capa_1" xmlns="http://www.w3.org/2000/svg" xmlns:xlink="http://www.w3.org/1999/xlink" x="0px" y="0px"
	 viewBox="0 0 390 512" style="enable-background:new 0 0 390 512;" xml:space="preserve">
<g>
	<g>
		<g>
			<path d="M101.1,399.9c-0.2,0.2-0.3,0.4-0.5,0.5c-10.1,10.9-2.4,28.6,12.5,28.6h163.8c14.9,0,22.6-17.7,12.5-28.6
				c-0.2-0.2-0.3-0.4-0.5-0.5c-15.2-16.3-72.5-64.6-73.2-65.2c-11.9-10.2-29.5-10.2-41.4,0C173.5,335.3,116.3,383.6,101.1,399.9z"/>
			<path d="M273.1,240.9c4.8-4.1,10.2-8.7,16-13.6C331.7,191.5,390,142.5,390,91V60c0-33.1-26.9-60-60-60H60C26.9,0,0,26.9,0,60v31
				c0,51.5,58.3,100.5,100.9,136.3c5.8,4.9,11.2,9.4,16,13.6c4.5,3.9,7.1,9.4,7.1,15.1c0,5.7-2.6,11.2-7.1,15.1
				c-4.8,4.1-10.2,8.7-16,13.6C58.3,320.5,0,369.5,0,421v31c0,33.1,26.9,60,60,60h270c33.1,0,60-26.9,60-60c0-11-9-20-20-20
				s-20,9-20,20c0,11-9,20-20,20H60c-11,0-20-9-20-20v-31c0-32.9,54.2-78.5,86.6-105.7c5.9-5,11.5-9.7,16.5-14
				c13.3-11.5,20.9-28,20.9-45.3c0-17.2-7.6-33.7-20.9-45.3c-5-4.4-10.6-9.1-16.5-14C94.2,169.5,40,123.9,40,91V60c0-11,9-20,20-20
				h270c11,0,20,9,20,20v31c0,32.9-54.2,78.5-86.6,105.7c-5.9,5-11.5,9.7-16.5,14c-13.3,11.5-20.9,28-20.9,45.3s7.6,33.7,20.9,45.3
				c5.2,4.6,11.1,9.4,17.2,14.6c19.5,16.3,41.5,34.7,58.9,54.4c7.3,8.3,20,9,28.2,1.7c8.3-7.3,9-20,1.7-28.2
				c-19.4-21.9-43.7-42.2-63.2-58.5c-6-5-11.7-9.8-16.7-14.1c-4.5-3.9-7.1-9.4-7.1-15.1S268.6,244.8,273.1,240.9z"/>
			<path d="M216.6,185.2c0.4-0.3,14.3-12.3,30.2-26.4c12.5-11,4.8-31.9-11.7-31.9h-78.2c-16.5,0-24.2,20.8-11.7,31.9
				c15.9,14.1,29.9,26.1,30.2,26.4C187.3,195.6,204.7,195.6,216.6,185.2z"/>
		</g>
	</g>
</g>
</svg>
